Ames Housing Price Analysis
…
Model Diagnostics

Now that you have chosen our best model, we need to determine if it is reliable or not:

There are three things to check.

Linearity

Distribution of Residuals

Constant Variability of residuals

Creating two new data columns based on our best model: predicted values for our response variable and the corresponding residuals.

# A tibble: 2,904 x 8
   Sale_Price Gr_Liv_Area .fitted  .resid     .hat .sigma     .cooksd
        <int>       <int>   <dbl>   <dbl>    <dbl>  <dbl>       <dbl>
 1     215000        1656 199450.  15550. 0.000394 53815. 0.0000165  
 2     105000         896 110625.  -5625. 0.000896 53816. 0.00000491 
 3     172000        1329 161232.  10768. 0.000382 53816. 0.00000765 
 4     244000        2110 252510.  -8510. 0.000983 53816. 0.0000123  
 5     189900        1629 196294.  -6394. 0.000380 53816. 0.00000268 
 6     195500        1604 193372.   2128. 0.000369 53816. 0.000000289
 7     213500        1338 162284.  51216. 0.000377 53807. 0.000171   
 8     191500        1280 155505.  35995. 0.000409 53812. 0.0000917  
 9     236500        1616 194775.  41725. 0.000374 53810. 0.000112   
10     189000        1804 216747. -27747. 0.000513 53813. 0.0000683  
# ... with 2,894 more rows, and 1 more variable: .std.resid <dbl>
…
